#==========================================================
#        Date: 2022-03-03T18:44:48.378Z
# CSS Version: trunk
#     Comment: N/A
#
# Command line and derived parameters:
#    --vcName="atst.ics.vbiBlue.dc.vcc"
#       --id0=true
#    --idList=N/A
#         ID0: eb_root_0-0.155.7959
#     ID0 IDs: cc_MmK9ge,cc_gH1E0t,cc_nO0lBf,cc_qM8fjh,cc_tuLnyu,eb_Blue_Continuum.qM8fjh,eb_Blue_Continuum.tuLnyu,eb_Ca_II_K.gH1E0t,eb_Center.nO0lBf,eb_Center.qM8fjh,eb_Center.tuLnyu,eb_Focus.MmK9ge,eb_Focus.gH1E0t,eb_Focus.nO0lBf,eb_Focus.qM8fjh,eb_Focus.tuLnyu,eb_G_Band.MmK9ge,eb_H_Beta.nO0lBf,eb_Horizontal.MmK9ge,eb_Spiral.gH1E0t,eb_group_1-0.155.7960,eb_group_2-0.155.7961,eb_root_0-0.155.7959
#  IDs to get: cc_MmK9ge,cc_gH1E0t,cc_nO0lBf,cc_qM8fjh,cc_tuLnyu,eb_Blue_Continuum.qM8fjh,eb_Blue_Continuum.tuLnyu,eb_Ca_II_K.gH1E0t,eb_Center.nO0lBf,eb_Center.qM8fjh,eb_Center.tuLnyu,eb_Focus.MmK9ge,eb_Focus.gH1E0t,eb_Focus.nO0lBf,eb_Focus.qM8fjh,eb_Focus.tuLnyu,eb_G_Band.MmK9ge,eb_H_Beta.nO0lBf,eb_Horizontal.MmK9ge,eb_Spiral.gH1E0t,eb_group_1-0.155.7960,eb_group_2-0.155.7961,eb_root_0-0.155.7959
#
# Additional information:
#        Camera Name: AndorBalor.01
#       Is Simulated: true
#       Trigger Mode: Software
#       Reference T0: 2022-03-03T17:44:32.000000000Z
#           Cam Mode: startWithoutSave
#         Start Mode: atStartTime
# Initial Start Time: 2022-03-03T18:44:32.000000000Z
#  Trigger Reference: timeSlice
#    Execution Count: 1
#==========================================================

# cc_MmK9ge
{"table":{"css.tools.camConfig:ID":["cc_MmK9ge"],"css.tools.camConfig:accum:numCycles":["1"],"css.tools.camConfig:accum:numberOf":["1"],"css.tools.camConfig:accum:posAtRefT0":["1"],"css.tools.camConfig:accum:sequence":["1"],"css.tools.camConfig:bufferEnable":["false"],"css.tools.camConfig:description":["Generated from dspMmK9ge"],"css.tools.camConfig:exposure:rate":["30.0"],"css.tools.camConfig:exposure:rateMultiplier":["1"],"css.tools.camConfig:exposure:ratePhase":["0.0"],"css.tools.camConfig:exposure:time":["20.0"],"css.tools.camConfig:normalization:method":["none"],"css.tools.camConfig:normalization:value":["0.0"],"css.tools.camConfig:winBin:hw:binSize":["1","1"],"css.tools.camConfig:winBin:hw:win:ROI_1":["0","0","4128","4104"],"css.tools.camConfig:winBin:hw:win:ROI_2":["0","0","1","1"],"css.tools.camConfig:winBin:hw:win:ROI_3":["0","0","1","1"],"css.tools.camConfig:winBin:hw:win:ROI_4":["0","0","1","1"],"css.tools.camConfig:winBin:hw:win:numberOfROIs":["1"],"css.tools.camConfig:winBin:sw:binSize":["1","1"],"css.tools.camConfig:winBin:sw:win:ROI_1":["0","0","4128","4104"],"css.tools.camConfig:winBin:sw:win:ROI_2":["0","0","1","1"],"css.tools.camConfig:winBin:sw:win:ROI_3":["0","0","1","1"],"css.tools.camConfig:winBin:sw:win:ROI_4":["0","0","1","1"],"css.tools.camConfig:winBin:sw:win:numberOfROIs":["1"],"css.tools.camConfig:winBin:sw:win:roiType":["vertical"]}}

# cc_gH1E0t
{"table":{"css.tools.camConfig:ID":["cc_gH1E0t"],"css.tools.camConfig:accum:numCycles":["1"],"css.tools.camConfig:accum:numberOf":["1"],"css.tools.camConfig:accum:posAtRefT0":["1"],"css.tools.camConfig:accum:sequence":["1"],"css.tools.camConfig:bufferEnable":["false"],"css.tools.camConfig:description":["Generated from dspgH1E0t"],"css.tools.camConfig:exposure:rate":["30.0"],"css.tools.camConfig:exposure:rateMultiplier":["1"],"css.tools.camConfig:exposure:ratePhase":["0.0"],"css.tools.camConfig:exposure:time":["20.0"],"css.tools.camConfig:normalization:method":["none"],"css.tools.camConfig:normalization:value":["0.0"],"css.tools.camConfig:winBin:hw:binSize":["1","1"],"css.tools.camConfig:winBin:hw:win:ROI_1":["0","0","4128","4104"],"css.tools.camConfig:winBin:hw:win:ROI_2":["0","0","1","1"],"css.tools.camConfig:winBin:hw:win:ROI_3":["0","0","1","1"],"css.tools.camConfig:winBin:hw:win:ROI_4":["0","0","1","1"],"css.tools.camConfig:winBin:hw:win:numberOfROIs":["1"],"css.tools.camConfig:winBin:sw:binSize":["1","1"],"css.tools.camConfig:winBin:sw:win:ROI_1":["0","0","4128","4104"],"css.tools.camConfig:winBin:sw:win:ROI_2":["0","0","1","1"],"css.tools.camConfig:winBin:sw:win:ROI_3":["0","0","1","1"],"css.tools.camConfig:winBin:sw:win:ROI_4":["0","0","1","1"],"css.tools.camConfig:winBin:sw:win:numberOfROIs":["1"],"css.tools.camConfig:winBin:sw:win:roiType":["vertical"]}}

# cc_nO0lBf
{"table":{"css.tools.camConfig:ID":["cc_nO0lBf"],"css.tools.camConfig:accum:numCycles":["1"],"css.tools.camConfig:accum:numberOf":["1"],"css.tools.camConfig:accum:posAtRefT0":["1"],"css.tools.camConfig:accum:sequence":["1"],"css.tools.camConfig:bufferEnable":["false"],"css.tools.camConfig:description":["Generated from dspnO0lBf"],"css.tools.camConfig:exposure:rate":["30.0"],"css.tools.camConfig:exposure:rateMultiplier":["1"],"css.tools.camConfig:exposure:ratePhase":["0.0"],"css.tools.camConfig:exposure:time":["10.0"],"css.tools.camConfig:normalization:method":["none"],"css.tools.camConfig:normalization:value":["0.0"],"css.tools.camConfig:winBin:hw:binSize":["1","1"],"css.tools.camConfig:winBin:hw:win:ROI_1":["0","0","4128","4104"],"css.tools.camConfig:winBin:hw:win:ROI_2":["0","0","1","1"],"css.tools.camConfig:winBin:hw:win:ROI_3":["0","0","1","1"],"css.tools.camConfig:winBin:hw:win:ROI_4":["0","0","1","1"],"css.tools.camConfig:winBin:hw:win:numberOfROIs":["1"],"css.tools.camConfig:winBin:sw:binSize":["1","1"],"css.tools.camConfig:winBin:sw:win:ROI_1":["0","0","4128","4104"],"css.tools.camConfig:winBin:sw:win:ROI_2":["0","0","1","1"],"css.tools.camConfig:winBin:sw:win:ROI_3":["0","0","1","1"],"css.tools.camConfig:winBin:sw:win:ROI_4":["0","0","1","1"],"css.tools.camConfig:winBin:sw:win:numberOfROIs":["1"],"css.tools.camConfig:winBin:sw:win:roiType":["vertical"]}}

# cc_qM8fjh
{"table":{"css.tools.camConfig:ID":["cc_qM8fjh"],"css.tools.camConfig:accum:numCycles":["1"],"css.tools.camConfig:accum:numberOf":["1"],"css.tools.camConfig:accum:posAtRefT0":["1"],"css.tools.camConfig:accum:sequence":["1"],"css.tools.camConfig:bufferEnable":["false"],"css.tools.camConfig:description":["Generated from dspqM8fjh"],"css.tools.camConfig:exposure:rate":["10.0"],"css.tools.camConfig:exposure:rateMultiplier":["1"],"css.tools.camConfig:exposure:ratePhase":["0.0"],"css.tools.camConfig:exposure:time":["32.5"],"css.tools.camConfig:normalization:method":["none"],"css.tools.camConfig:normalization:value":["0.0"],"css.tools.camConfig:winBin:hw:binSize":["1","1"],"css.tools.camConfig:winBin:hw:win:ROI_1":["0","0","4128","4104"],"css.tools.camConfig:winBin:hw:win:ROI_2":["0","0","1","1"],"css.tools.camConfig:winBin:hw:win:ROI_3":["0","0","1","1"],"css.tools.camConfig:winBin:hw:win:ROI_4":["0","0","1","1"],"css.tools.camConfig:winBin:hw:win:numberOfROIs":["1"],"css.tools.camConfig:winBin:sw:binSize":["1","1"],"css.tools.camConfig:winBin:sw:win:ROI_1":["0","0","4128","4104"],"css.tools.camConfig:winBin:sw:win:ROI_2":["0","0","1","1"],"css.tools.camConfig:winBin:sw:win:ROI_3":["0","0","1","1"],"css.tools.camConfig:winBin:sw:win:ROI_4":["0","0","1","1"],"css.tools.camConfig:winBin:sw:win:numberOfROIs":["1"],"css.tools.camConfig:winBin:sw:win:roiType":["vertical"]}}

# cc_tuLnyu
{"table":{"css.tools.camConfig:ID":["cc_tuLnyu"],"css.tools.camConfig:accum:numCycles":["1"],"css.tools.camConfig:accum:numberOf":["1"],"css.tools.camConfig:accum:posAtRefT0":["1"],"css.tools.camConfig:accum:sequence":["1"],"css.tools.camConfig:bufferEnable":["false"],"css.tools.camConfig:description":["Generated from dsptuLnyu"],"css.tools.camConfig:exposure:rate":["25.0"],"css.tools.camConfig:exposure:rateMultiplier":["1"],"css.tools.camConfig:exposure:ratePhase":["0.0"],"css.tools.camConfig:exposure:time":["32.5"],"css.tools.camConfig:normalization:method":["none"],"css.tools.camConfig:normalization:value":["0.0"],"css.tools.camConfig:winBin:hw:binSize":["1","1"],"css.tools.camConfig:winBin:hw:win:ROI_1":["0","0","4128","4104"],"css.tools.camConfig:winBin:hw:win:ROI_2":["0","0","1","1"],"css.tools.camConfig:winBin:hw:win:ROI_3":["0","0","1","1"],"css.tools.camConfig:winBin:hw:win:ROI_4":["0","0","1","1"],"css.tools.camConfig:winBin:hw:win:numberOfROIs":["1"],"css.tools.camConfig:winBin:sw:binSize":["1","1"],"css.tools.camConfig:winBin:sw:win:ROI_1":["0","0","4128","4104"],"css.tools.camConfig:winBin:sw:win:ROI_2":["0","0","1","1"],"css.tools.camConfig:winBin:sw:win:ROI_3":["0","0","1","1"],"css.tools.camConfig:winBin:sw:win:ROI_4":["0","0","1","1"],"css.tools.camConfig:winBin:sw:win:numberOfROIs":["1"],"css.tools.camConfig:winBin:sw:win:roiType":["vertical"]}}

# eb_Blue_Continuum.qM8fjh
{"table":{"css.tools.execBlock:ID":["eb_Blue_Continuum.qM8fjh"],"css.tools.execBlock:description":["FILTER Execution Block"],"css.tools.execBlock:exec:count":["1"],"css.tools.execBlock:exec:nextID":["eb_Center.qM8fjh"],"css.tools.execBlock:exec:timeSlice":["0.0"],"css.tools.execBlock:exec:timeSliceRepeats":["true"],"css.tools.execBlock:metaData:enable":["true"],"css.tools.execBlock:metaData:repeats":["false"],"css.tools.execBlock:metaData:sets":["{\"table\":{\"atst.ics.vbiBlue.field:id\":[\"5\"],\"atst.ics.vbiBlue.field:xEngPos\":[\"8000.0\"],\"atst.ics.vbiBlue.field:xNamedPos\":[\"center\"],\"atst.ics.vbiBlue.field:xReferencePixel\":[\"2064.0\"],\"atst.ics.vbiBlue.field:xUserPos\":[\"2.0\"],\"atst.ics.vbiBlue.field:yEngPos\":[\"20000.0\"],\"atst.ics.vbiBlue.field:yNamedPos\":[\"center\"],\"atst.ics.vbiBlue.field:yReferencePixel\":[\"2052.0\"],\"atst.ics.vbiBlue.field:yUserPos\":[\"5.0\"],\"atst.ics.vbiBlue.wciVbiWarray\":[\"-1.264216090292705E-4\",\"2.5177954262237262E-8\",\"4.538209381153369E-9\",\"0.0\",\"-8.801474953610766E-5\",\"-4.439552655476123E-9\",\"2.5737464356953647E-8\",\"0.0\",\"0.0\",\"0.0\",\"0.0\",\"1.0\"]}}"]}}

# eb_Blue_Continuum.tuLnyu
{"table":{"css.tools.execBlock:ID":["eb_Blue_Continuum.tuLnyu"],"css.tools.execBlock:description":["FILTER Execution Block"],"css.tools.execBlock:exec:count":["1"],"css.tools.execBlock:exec:nextID":["eb_Center.tuLnyu"],"css.tools.execBlock:exec:timeSlice":["0.0"],"css.tools.execBlock:exec:timeSliceRepeats":["true"],"css.tools.execBlock:metaData:enable":["true"],"css.tools.execBlock:metaData:repeats":["false"],"css.tools.execBlock:metaData:sets":["{\"table\":{\"atst.ics.vbiBlue.field:id\":[\"5\"],\"atst.ics.vbiBlue.field:xEngPos\":[\"8000.0\"],\"atst.ics.vbiBlue.field:xNamedPos\":[\"center\"],\"atst.ics.vbiBlue.field:xReferencePixel\":[\"2064.0\"],\"atst.ics.vbiBlue.field:xUserPos\":[\"2.0\"],\"atst.ics.vbiBlue.field:yEngPos\":[\"20000.0\"],\"atst.ics.vbiBlue.field:yNamedPos\":[\"center\"],\"atst.ics.vbiBlue.field:yReferencePixel\":[\"2052.0\"],\"atst.ics.vbiBlue.field:yUserPos\":[\"5.0\"],\"atst.ics.vbiBlue.wciVbiWarray\":[\"-1.264216090292705E-4\",\"2.5177954262237262E-8\",\"4.538209381153369E-9\",\"0.0\",\"-8.801474953610766E-5\",\"-4.439552655476123E-9\",\"2.5737464356953647E-8\",\"0.0\",\"0.0\",\"0.0\",\"0.0\",\"1.0\"]}}"]}}

# eb_Ca_II_K.gH1E0t
{"table":{"css.tools.execBlock:ID":["eb_Ca_II_K.gH1E0t"],"css.tools.execBlock:description":["FILTER Execution Block"],"css.tools.execBlock:exec:count":["8","1"],"css.tools.execBlock:exec:nextID":["eb_Spiral.gH1E0t","eb_Spiral.gH1E0t"],"css.tools.execBlock:exec:timeSlice":["3.0466666666666664","0.0"],"css.tools.execBlock:exec:timeSliceRepeats":["true"],"css.tools.execBlock:metaData:enable":["true"],"css.tools.execBlock:metaData:repeats":["false"],"css.tools.execBlock:metaData:sets":["{\"table\":{\"atst.ics.vbiBlue.field:id\":[\"5\"],\"atst.ics.vbiBlue.field:xEngPos\":[\"8000.0\"],\"atst.ics.vbiBlue.field:xNamedPos\":[\"center\"],\"atst.ics.vbiBlue.field:xReferencePixel\":[\"2064.0\"],\"atst.ics.vbiBlue.field:xUserPos\":[\"2.0\"],\"atst.ics.vbiBlue.field:yEngPos\":[\"20000.0\"],\"atst.ics.vbiBlue.field:yNamedPos\":[\"center\"],\"atst.ics.vbiBlue.field:yReferencePixel\":[\"2052.0\"],\"atst.ics.vbiBlue.field:yUserPos\":[\"5.0\"],\"atst.ics.vbiBlue.wciVbiWarray\":[\"-1.264216090292705E-4\",\"2.5177954262237262E-8\",\"4.538209381153369E-9\",\"0.0\",\"-8.801474953610766E-5\",\"-4.439552655476123E-9\",\"2.5737464356953647E-8\",\"0.0\",\"0.0\",\"0.0\",\"0.0\",\"1.0\"]}}","{\"table\":{\"atst.ics.vbiBlue.field:id\":[\"6\"],\"atst.ics.vbiBlue.field:xEngPos\":[\"170800.0\"],\"atst.ics.vbiBlue.field:xNamedPos\":[\"right\"],\"atst.ics.vbiBlue.field:xReferencePixel\":[\"-1327.6666\"],\"atst.ics.vbiBlue.field:xUserPos\":[\"42.7\"],\"atst.ics.vbiBlue.field:yEngPos\":[\"20000.0\"],\"atst.ics.vbiBlue.field:yNamedPos\":[\"center\"],\"atst.ics.vbiBlue.field:yReferencePixel\":[\"2052.0\"],\"atst.ics.vbiBlue.field:yUserPos\":[\"5.0\"],\"atst.ics.vbiBlue.wciVbiWarray\":[\"-4.102638184767604E-5\",\"2.5177954262237262E-8\",\"4.538209381153369E-9\",\"0.0\",\"-1.0307223211195165E-4\",\"-4.439552655476123E-9\",\"2.5737464356953647E-8\",\"0.0\",\"0.0\",\"0.0\",\"0.0\",\"1.0\"]}}","{\"table\":{\"atst.ics.vbiBlue.field:id\":[\"3\"],\"atst.ics.vbiBlue.field:xEngPos\":[\"170800.0\"],\"atst.ics.vbiBlue.field:xNamedPos\":[\"right\"],\"atst.ics.vbiBlue.field:xReferencePixel\":[\"-1327.6666\"],\"atst.ics.vbiBlue.field:xUserPos\":[\"42.7\"],\"atst.ics.vbiBlue.field:yEngPos\":[\"183199.99999999997\"],\"atst.ics.vbiBlue.field:yNamedPos\":[\"top\"],\"atst.ics.vbiBlue.field:yReferencePixel\":[\"-1348.0\"],\"atst.ics.vbiBlue.field:yUserPos\":[\"45.8\"],\"atst.ics.vbiBlue.wciVbiWarray\":[\"-2.5596469951754585E-5\",\"2.5177954262237262E-8\",\"4.538209381153369E-9\",\"0.0\",\"-1.5564853298309265E-5\",\"-4.439552655476123E-9\",\"2.5737464356953647E-8\",\"0.0\",\"0.0\",\"0.0\",\"0.0\",\"1.0\"]}}","{\"table\":{\"atst.ics.vbiBlue.field:id\":[\"2\"],\"atst.ics.vbiBlue.field:xEngPos\":[\"8000.0\"],\"atst.ics.vbiBlue.field:xNamedPos\":[\"center\"],\"atst.ics.vbiBlue.field:xReferencePixel\":[\"2064.0\"],\"atst.ics.vbiBlue.field:xUserPos\":[\"2.0\"],\"atst.ics.vbiBlue.field:yEngPos\":[\"183199.99999999997\"],\"atst.ics.vbiBlue.field:yNamedPos\":[\"top\"],\"atst.ics.vbiBlue.field:yReferencePixel\":[\"-1348.0\"],\"atst.ics.vbiBlue.field:yUserPos\":[\"45.8\"],\"atst.ics.vbiBlue.wciVbiWarray\":[\"-1.1099169713334905E-4\",\"2.5177954262237262E-8\",\"4.538209381153369E-9\",\"0.0\",\"-5.073707224652725E-7\",\"-4.439552655476123E-9\",\"2.5737464356953647E-8\",\"0.0\",\"0.0\",\"0.0\",\"0.0\",\"1.0\"]}}","{\"table\":{\"atst.ics.vbiBlue.field:id\":[\"1\"],\"atst.ics.vbiBlue.field:xEngPos\":[\"-154800.0\"],\"atst.ics.vbiBlue.field:xNamedPos\":[\"left\"],\"atst.ics.vbiBlue.field:xReferencePixel\":[\"5455.6665\"],\"atst.ics.vbiBlue.field:xUserPos\":[\"-38.7\"],\"atst.ics.vbiBlue.field:yEngPos\":[\"183199.99999999997\"],\"atst.ics.vbiBlue.field:yNamedPos\":[\"top\"],\"atst.ics.vbiBlue.field:yReferencePixel\":[\"-1348.0\"],\"atst.ics.vbiBlue.field:yUserPos\":[\"45.8\"],\"atst.ics.vbiBlue.wciVbiWarray\":[\"-1.9638692124146278E-4\",\"2.5177954262237262E-8\",\"4.538209381153369E-9\",\"0.0\",\"1.4550111311441131E-5\",\"-4.439552655476123E-9\",\"2.5737464356953647E-8\",\"0.0\",\"0.0\",\"0.0\",\"0.0\",\"1.0\"]}}","{\"table\":{\"atst.ics.vbiBlue.field:id\":[\"4\"],\"atst.ics.vbiBlue.field:xEngPos\":[\"-154800.0\"],\"atst.ics.vbiBlue.field:xNamedPos\":[\"left\"],\"atst.ics.vbiBlue.field:xReferencePixel\":[\"5455.6665\"],\"atst.ics.vbiBlue.field:xUserPos\":[\"-38.7\"],\"atst.ics.vbiBlue.field:yEngPos\":[\"20000.0\"],\"atst.ics.vbiBlue.field:yNamedPos\":[\"center\"],\"atst.ics.vbiBlue.field:yReferencePixel\":[\"2052.0\"],\"atst.ics.vbiBlue.field:yUserPos\":[\"5.0\"],\"atst.ics.vbiBlue.wciVbiWarray\":[\"-2.118168331373842E-4\",\"2.5177954262237262E-8\",\"4.538209381153369E-9\",\"0.0\",\"-7.295726750220126E-5\",\"-4.439552655476123E-9\",\"2.5737464356953647E-8\",\"0.0\",\"0.0\",\"0.0\",\"0.0\",\"1.0\"]}}","{\"table\":{\"atst.ics.vbiBlue.field:id\":[\"7\"],\"atst.ics.vbiBlue.field:xEngPos\":[\"-154800.0\"],\"atst.ics.vbiBlue.field:xNamedPos\":[\"left\"],\"atst.ics.vbiBlue.field:xReferencePixel\":[\"5455.6665\"],\"atst.ics.vbiBlue.field:xUserPos\":[\"-38.7\"],\"atst.ics.vbiBlue.field:yEngPos\":[\"-143200.0\"],\"atst.ics.vbiBlue.field:yNamedPos\":[\"bottom\"],\"atst.ics.vbiBlue.field:yReferencePixel\":[\"5452.0\"],\"atst.ics.vbiBlue.field:yUserPos\":[\"-35.8\"],\"atst.ics.vbiBlue.wciVbiWarray\":[\"-2.2724674503330568E-4\",\"2.5177954262237262E-8\",\"4.538209381153369E-9\",\"0.0\",\"-1.6046464631584365E-4\",\"-4.439552655476123E-9\",\"2.5737464356953647E-8\",\"0.0\",\"0.0\",\"0.0\",\"0.0\",\"1.0\"]}}","{\"table\":{\"atst.ics.vbiBlue.field:id\":[\"8\"],\"atst.ics.vbiBlue.field:xEngPos\":[\"8000.0\"],\"atst.ics.vbiBlue.field:xNamedPos\":[\"center\"],\"atst.ics.vbiBlue.field:xReferencePixel\":[\"2064.0\"],\"atst.ics.vbiBlue.field:xUserPos\":[\"2.0\"],\"atst.ics.vbiBlue.field:yEngPos\":[\"-143200.0\"],\"atst.ics.vbiBlue.field:yNamedPos\":[\"bottom\"],\"atst.ics.vbiBlue.field:yReferencePixel\":[\"5452.0\"],\"atst.ics.vbiBlue.field:yUserPos\":[\"-35.8\"],\"atst.ics.vbiBlue.wciVbiWarray\":[\"-1.4185152092519195E-4\",\"2.5177954262237262E-8\",\"4.538209381153369E-9\",\"0.0\",\"-1.7552212834975005E-4\",\"-4.439552655476123E-9\",\"2.5737464356953647E-8\",\"0.0\",\"0.0\",\"0.0\",\"0.0\",\"1.0\"]}}","{\"table\":{\"atst.ics.vbiBlue.field:id\":[\"9\"],\"atst.ics.vbiBlue.field:xEngPos\":[\"170800.0\"],\"atst.ics.vbiBlue.field:xNamedPos\":[\"right\"],\"atst.ics.vbiBlue.field:xReferencePixel\":[\"-1327.6666\"],\"atst.ics.vbiBlue.field:xUserPos\":[\"42.7\"],\"atst.ics.vbiBlue.field:yEngPos\":[\"-143200.0\"],\"atst.ics.vbiBlue.field:yNamedPos\":[\"bottom\"],\"atst.ics.vbiBlue.field:yReferencePixel\":[\"5452.0\"],\"atst.ics.vbiBlue.field:yUserPos\":[\"-35.8\"],\"atst.ics.vbiBlue.wciVbiWarray\":[\"-5.6456293743597496E-5\",\"2.5177954262237262E-8\",\"4.538209381153369E-9\",\"0.0\",\"-1.9057961092559404E-4\",\"-4.439552655476123E-9\",\"2.5737464356953647E-8\",\"0.0\",\"0.0\",\"0.0\",\"0.0\",\"1.0\"]}}"]}}

# eb_Center.nO0lBf
{"table":{"css.tools.execBlock:ID":["eb_Center.nO0lBf"],"css.tools.execBlock:description":["FIELD Execution Block"],"css.tools.execBlock:exec:count":["1"],"css.tools.execBlock:exec:nextID":["eb_Focus.nO0lBf"],"css.tools.execBlock:exec:timeSlice":["0.0"],"css.tools.execBlock:exec:timeSliceRepeats":["true"],"css.tools.execBlock:metaData:enable":["true"],"css.tools.execBlock:metaData:repeats":["false"],"css.tools.execBlock:metaData:sets":["{\"table\":{\"atst.ics.vbiBlue.focus:engPos\":[\"-8912.0\"],\"atst.ics.vbiBlue.focus:namedPos\":[\"H Beta\"],\"atst.ics.vbiBlue.focus:userPos\":[\"-2.228\"]}}"]}}

# eb_Center.qM8fjh
{"table":{"css.tools.execBlock:ID":["eb_Center.qM8fjh"],"css.tools.execBlock:description":["FIELD Execution Block"],"css.tools.execBlock:exec:count":["1"],"css.tools.execBlock:exec:nextID":["eb_Focus.qM8fjh"],"css.tools.execBlock:exec:timeSlice":["0.0"],"css.tools.execBlock:exec:timeSliceRepeats":["true"],"css.tools.execBlock:metaData:enable":["true"],"css.tools.execBlock:metaData:repeats":["false"],"css.tools.execBlock:metaData:sets":["{\"table\":{\"atst.ics.vbiBlue.focus:engPos\":[\"-4404.8\"],\"atst.ics.vbiBlue.focus:namedPos\":[\"Blue Continuum\"],\"atst.ics.vbiBlue.focus:userPos\":[\"-1.1012\"]}}"]}}

# eb_Center.tuLnyu
{"table":{"css.tools.execBlock:ID":["eb_Center.tuLnyu"],"css.tools.execBlock:description":["FIELD Execution Block"],"css.tools.execBlock:exec:count":["1"],"css.tools.execBlock:exec:nextID":["eb_Focus.tuLnyu"],"css.tools.execBlock:exec:timeSlice":["0.0"],"css.tools.execBlock:exec:timeSliceRepeats":["true"],"css.tools.execBlock:metaData:enable":["true"],"css.tools.execBlock:metaData:repeats":["false"],"css.tools.execBlock:metaData:sets":["{\"table\":{\"atst.ics.vbiBlue.focus:engPos\":[\"-4404.8\"],\"atst.ics.vbiBlue.focus:namedPos\":[\"Blue Continuum\"],\"atst.ics.vbiBlue.focus:userPos\":[\"-1.1012\"]}}"]}}

# eb_Focus.MmK9ge
{"table":{"css.tools.execBlock:ID":["eb_Focus.MmK9ge"],"css.tools.execBlock:description":["FOCUS Execution Block"],"css.tools.execBlock:exec:count":["80"],"css.tools.execBlock:exec:nextID":["cc_MmK9ge"],"css.tools.execBlock:exec:timeSlice":["0.0"],"css.tools.execBlock:exec:timeSliceRepeats":["true"],"css.tools.execBlock:metaData:enable":["false"],"css.tools.execBlock:metaData:repeats":["false"],"css.tools.execBlock:metaData:sets":[]}}

# eb_Focus.gH1E0t
{"table":{"css.tools.execBlock:ID":["eb_Focus.gH1E0t"],"css.tools.execBlock:description":["FOCUS Execution Block"],"css.tools.execBlock:exec:count":["80"],"css.tools.execBlock:exec:nextID":["cc_gH1E0t"],"css.tools.execBlock:exec:timeSlice":["0.0"],"css.tools.execBlock:exec:timeSliceRepeats":["true"],"css.tools.execBlock:metaData:enable":["false"],"css.tools.execBlock:metaData:repeats":["false"],"css.tools.execBlock:metaData:sets":[]}}

# eb_Focus.nO0lBf
{"table":{"css.tools.execBlock:ID":["eb_Focus.nO0lBf"],"css.tools.execBlock:description":["FOCUS Execution Block"],"css.tools.execBlock:exec:count":["80"],"css.tools.execBlock:exec:nextID":["cc_nO0lBf"],"css.tools.execBlock:exec:timeSlice":["0.0"],"css.tools.execBlock:exec:timeSliceRepeats":["true"],"css.tools.execBlock:metaData:enable":["false"],"css.tools.execBlock:metaData:repeats":["false"],"css.tools.execBlock:metaData:sets":[]}}

# eb_Focus.qM8fjh
{"table":{"css.tools.execBlock:ID":["eb_Focus.qM8fjh"],"css.tools.execBlock:description":["FOCUS Execution Block"],"css.tools.execBlock:exec:count":["80"],"css.tools.execBlock:exec:nextID":["cc_qM8fjh"],"css.tools.execBlock:exec:timeSlice":["0.0"],"css.tools.execBlock:exec:timeSliceRepeats":["true"],"css.tools.execBlock:metaData:enable":["false"],"css.tools.execBlock:metaData:repeats":["false"],"css.tools.execBlock:metaData:sets":[]}}

# eb_Focus.tuLnyu
{"table":{"css.tools.execBlock:ID":["eb_Focus.tuLnyu"],"css.tools.execBlock:description":["FOCUS Execution Block"],"css.tools.execBlock:exec:count":["80"],"css.tools.execBlock:exec:nextID":["cc_tuLnyu"],"css.tools.execBlock:exec:timeSlice":["0.0"],"css.tools.execBlock:exec:timeSliceRepeats":["true"],"css.tools.execBlock:metaData:enable":["false"],"css.tools.execBlock:metaData:repeats":["false"],"css.tools.execBlock:metaData:sets":[]}}

# eb_G_Band.MmK9ge
{"table":{"css.tools.execBlock:ID":["eb_G_Band.MmK9ge"],"css.tools.execBlock:description":["FILTER Execution Block"],"css.tools.execBlock:exec:count":["2","1","2","1","2","1"],"css.tools.execBlock:exec:nextID":["eb_Horizontal.MmK9ge","eb_Horizontal.MmK9ge","eb_Horizontal.MmK9ge","eb_Horizontal.MmK9ge","eb_Horizontal.MmK9ge","eb_Horizontal.MmK9ge"],"css.tools.execBlock:exec:timeSlice":["3.0466666666666664","3.1966666666666663","3.0466666666666664","3.1966666666666663","3.0466666666666664","0.0"],"css.tools.execBlock:exec:timeSliceRepeats":["true"],"css.tools.execBlock:metaData:enable":["true"],"css.tools.execBlock:metaData:repeats":["false"],"css.tools.execBlock:metaData:sets":["{\"table\":{\"atst.ics.vbiBlue.field:id\":[\"1\"],\"atst.ics.vbiBlue.field:xEngPos\":[\"-154800.0\"],\"atst.ics.vbiBlue.field:xNamedPos\":[\"left\"],\"atst.ics.vbiBlue.field:xReferencePixel\":[\"5455.6665\"],\"atst.ics.vbiBlue.field:xUserPos\":[\"-38.7\"],\"atst.ics.vbiBlue.field:yEngPos\":[\"183199.99999999997\"],\"atst.ics.vbiBlue.field:yNamedPos\":[\"top\"],\"atst.ics.vbiBlue.field:yReferencePixel\":[\"-1348.0\"],\"atst.ics.vbiBlue.field:yUserPos\":[\"45.8\"],\"atst.ics.vbiBlue.wciVbiWarray\":[\"-1.9638692124146278E-4\",\"2.5177954262237262E-8\",\"4.538209381153369E-9\",\"0.0\",\"1.4550111311441131E-5\",\"-4.439552655476123E-9\",\"2.5737464356953647E-8\",\"0.0\",\"0.0\",\"0.0\",\"0.0\",\"1.0\"]}}","{\"table\":{\"atst.ics.vbiBlue.field:id\":[\"2\"],\"atst.ics.vbiBlue.field:xEngPos\":[\"8000.0\"],\"atst.ics.vbiBlue.field:xNamedPos\":[\"center\"],\"atst.ics.vbiBlue.field:xReferencePixel\":[\"2064.0\"],\"atst.ics.vbiBlue.field:xUserPos\":[\"2.0\"],\"atst.ics.vbiBlue.field:yEngPos\":[\"183199.99999999997\"],\"atst.ics.vbiBlue.field:yNamedPos\":[\"top\"],\"atst.ics.vbiBlue.field:yReferencePixel\":[\"-1348.0\"],\"atst.ics.vbiBlue.field:yUserPos\":[\"45.8\"],\"atst.ics.vbiBlue.wciVbiWarray\":[\"-1.1099169713334905E-4\",\"2.5177954262237262E-8\",\"4.538209381153369E-9\",\"0.0\",\"-5.073707224652725E-7\",\"-4.439552655476123E-9\",\"2.5737464356953647E-8\",\"0.0\",\"0.0\",\"0.0\",\"0.0\",\"1.0\"]}}","{\"table\":{\"atst.ics.vbiBlue.field:id\":[\"3\"],\"atst.ics.vbiBlue.field:xEngPos\":[\"170800.0\"],\"atst.ics.vbiBlue.field:xNamedPos\":[\"right\"],\"atst.ics.vbiBlue.field:xReferencePixel\":[\"-1327.6666\"],\"atst.ics.vbiBlue.field:xUserPos\":[\"42.7\"],\"atst.ics.vbiBlue.field:yEngPos\":[\"183199.99999999997\"],\"atst.ics.vbiBlue.field:yNamedPos\":[\"top\"],\"atst.ics.vbiBlue.field:yReferencePixel\":[\"-1348.0\"],\"atst.ics.vbiBlue.field:yUserPos\":[\"45.8\"],\"atst.ics.vbiBlue.wciVbiWarray\":[\"-2.5596469951754585E-5\",\"2.5177954262237262E-8\",\"4.538209381153369E-9\",\"0.0\",\"-1.5564853298309265E-5\",\"-4.439552655476123E-9\",\"2.5737464356953647E-8\",\"0.0\",\"0.0\",\"0.0\",\"0.0\",\"1.0\"]}}","{\"table\":{\"atst.ics.vbiBlue.field:id\":[\"4\"],\"atst.ics.vbiBlue.field:xEngPos\":[\"-154800.0\"],\"atst.ics.vbiBlue.field:xNamedPos\":[\"left\"],\"atst.ics.vbiBlue.field:xReferencePixel\":[\"5455.6665\"],\"atst.ics.vbiBlue.field:xUserPos\":[\"-38.7\"],\"atst.ics.vbiBlue.field:yEngPos\":[\"20000.0\"],\"atst.ics.vbiBlue.field:yNamedPos\":[\"center\"],\"atst.ics.vbiBlue.field:yReferencePixel\":[\"2052.0\"],\"atst.ics.vbiBlue.field:yUserPos\":[\"5.0\"],\"atst.ics.vbiBlue.wciVbiWarray\":[\"-2.118168331373842E-4\",\"2.5177954262237262E-8\",\"4.538209381153369E-9\",\"0.0\",\"-7.295726750220126E-5\",\"-4.439552655476123E-9\",\"2.5737464356953647E-8\",\"0.0\",\"0.0\",\"0.0\",\"0.0\",\"1.0\"]}}","{\"table\":{\"atst.ics.vbiBlue.field:id\":[\"5\"],\"atst.ics.vbiBlue.field:xEngPos\":[\"8000.0\"],\"atst.ics.vbiBlue.field:xNamedPos\":[\"center\"],\"atst.ics.vbiBlue.field:xReferencePixel\":[\"2064.0\"],\"atst.ics.vbiBlue.field:xUserPos\":[\"2.0\"],\"atst.ics.vbiBlue.field:yEngPos\":[\"20000.0\"],\"atst.ics.vbiBlue.field:yNamedPos\":[\"center\"],\"atst.ics.vbiBlue.field:yReferencePixel\":[\"2052.0\"],\"atst.ics.vbiBlue.field:yUserPos\":[\"5.0\"],\"atst.ics.vbiBlue.wciVbiWarray\":[\"-1.264216090292705E-4\",\"2.5177954262237262E-8\",\"4.538209381153369E-9\",\"0.0\",\"-8.801474953610766E-5\",\"-4.439552655476123E-9\",\"2.5737464356953647E-8\",\"0.0\",\"0.0\",\"0.0\",\"0.0\",\"1.0\"]}}","{\"table\":{\"atst.ics.vbiBlue.field:id\":[\"6\"],\"atst.ics.vbiBlue.field:xEngPos\":[\"170800.0\"],\"atst.ics.vbiBlue.field:xNamedPos\":[\"right\"],\"atst.ics.vbiBlue.field:xReferencePixel\":[\"-1327.6666\"],\"atst.ics.vbiBlue.field:xUserPos\":[\"42.7\"],\"atst.ics.vbiBlue.field:yEngPos\":[\"20000.0\"],\"atst.ics.vbiBlue.field:yNamedPos\":[\"center\"],\"atst.ics.vbiBlue.field:yReferencePixel\":[\"2052.0\"],\"atst.ics.vbiBlue.field:yUserPos\":[\"5.0\"],\"atst.ics.vbiBlue.wciVbiWarray\":[\"-4.102638184767604E-5\",\"2.5177954262237262E-8\",\"4.538209381153369E-9\",\"0.0\",\"-1.0307223211195165E-4\",\"-4.439552655476123E-9\",\"2.5737464356953647E-8\",\"0.0\",\"0.0\",\"0.0\",\"0.0\",\"1.0\"]}}","{\"table\":{\"atst.ics.vbiBlue.field:id\":[\"7\"],\"atst.ics.vbiBlue.field:xEngPos\":[\"-154800.0\"],\"atst.ics.vbiBlue.field:xNamedPos\":[\"left\"],\"atst.ics.vbiBlue.field:xReferencePixel\":[\"5455.6665\"],\"atst.ics.vbiBlue.field:xUserPos\":[\"-38.7\"],\"atst.ics.vbiBlue.field:yEngPos\":[\"-143200.0\"],\"atst.ics.vbiBlue.field:yNamedPos\":[\"bottom\"],\"atst.ics.vbiBlue.field:yReferencePixel\":[\"5452.0\"],\"atst.ics.vbiBlue.field:yUserPos\":[\"-35.8\"],\"atst.ics.vbiBlue.wciVbiWarray\":[\"-2.2724674503330568E-4\",\"2.5177954262237262E-8\",\"4.538209381153369E-9\",\"0.0\",\"-1.6046464631584365E-4\",\"-4.439552655476123E-9\",\"2.5737464356953647E-8\",\"0.0\",\"0.0\",\"0.0\",\"0.0\",\"1.0\"]}}","{\"table\":{\"atst.ics.vbiBlue.field:id\":[\"8\"],\"atst.ics.vbiBlue.field:xEngPos\":[\"8000.0\"],\"atst.ics.vbiBlue.field:xNamedPos\":[\"center\"],\"atst.ics.vbiBlue.field:xReferencePixel\":[\"2064.0\"],\"atst.ics.vbiBlue.field:xUserPos\":[\"2.0\"],\"atst.ics.vbiBlue.field:yEngPos\":[\"-143200.0\"],\"atst.ics.vbiBlue.field:yNamedPos\":[\"bottom\"],\"atst.ics.vbiBlue.field:yReferencePixel\":[\"5452.0\"],\"atst.ics.vbiBlue.field:yUserPos\":[\"-35.8\"],\"atst.ics.vbiBlue.wciVbiWarray\":[\"-1.4185152092519195E-4\",\"2.5177954262237262E-8\",\"4.538209381153369E-9\",\"0.0\",\"-1.7552212834975005E-4\",\"-4.439552655476123E-9\",\"2.5737464356953647E-8\",\"0.0\",\"0.0\",\"0.0\",\"0.0\",\"1.0\"]}}","{\"table\":{\"atst.ics.vbiBlue.field:id\":[\"9\"],\"atst.ics.vbiBlue.field:xEngPos\":[\"170800.0\"],\"atst.ics.vbiBlue.field:xNamedPos\":[\"right\"],\"atst.ics.vbiBlue.field:xReferencePixel\":[\"-1327.6666\"],\"atst.ics.vbiBlue.field:xUserPos\":[\"42.7\"],\"atst.ics.vbiBlue.field:yEngPos\":[\"-143200.0\"],\"atst.ics.vbiBlue.field:yNamedPos\":[\"bottom\"],\"atst.ics.vbiBlue.field:yReferencePixel\":[\"5452.0\"],\"atst.ics.vbiBlue.field:yUserPos\":[\"-35.8\"],\"atst.ics.vbiBlue.wciVbiWarray\":[\"-5.6456293743597496E-5\",\"2.5177954262237262E-8\",\"4.538209381153369E-9\",\"0.0\",\"-1.9057961092559404E-4\",\"-4.439552655476123E-9\",\"2.5737464356953647E-8\",\"0.0\",\"0.0\",\"0.0\",\"0.0\",\"1.0\"]}}"]}}

# eb_H_Beta.nO0lBf
{"table":{"css.tools.execBlock:ID":["eb_H_Beta.nO0lBf"],"css.tools.execBlock:description":["FILTER Execution Block"],"css.tools.execBlock:exec:count":["1"],"css.tools.execBlock:exec:nextID":["eb_Center.nO0lBf"],"css.tools.execBlock:exec:timeSlice":["0.0"],"css.tools.execBlock:exec:timeSliceRepeats":["true"],"css.tools.execBlock:metaData:enable":["true"],"css.tools.execBlock:metaData:repeats":["false"],"css.tools.execBlock:metaData:sets":["{\"table\":{\"atst.ics.vbiBlue.field:id\":[\"5\"],\"atst.ics.vbiBlue.field:xEngPos\":[\"8000.0\"],\"atst.ics.vbiBlue.field:xNamedPos\":[\"center\"],\"atst.ics.vbiBlue.field:xReferencePixel\":[\"2064.0\"],\"atst.ics.vbiBlue.field:xUserPos\":[\"2.0\"],\"atst.ics.vbiBlue.field:yEngPos\":[\"20000.0\"],\"atst.ics.vbiBlue.field:yNamedPos\":[\"center\"],\"atst.ics.vbiBlue.field:yReferencePixel\":[\"2052.0\"],\"atst.ics.vbiBlue.field:yUserPos\":[\"5.0\"],\"atst.ics.vbiBlue.wciVbiWarray\":[\"-1.264216090292705E-4\",\"2.5177954262237262E-8\",\"4.538209381153369E-9\",\"0.0\",\"-8.801474953610766E-5\",\"-4.439552655476123E-9\",\"2.5737464356953647E-8\",\"0.0\",\"0.0\",\"0.0\",\"0.0\",\"1.0\"]}}"]}}

# eb_Horizontal.MmK9ge
{"table":{"css.tools.execBlock:ID":["eb_Horizontal.MmK9ge"],"css.tools.execBlock:description":["FIELD Execution Block"],"css.tools.execBlock:exec:count":["1"],"css.tools.execBlock:exec:nextID":["eb_Focus.MmK9ge"],"css.tools.execBlock:exec:timeSlice":["0.0"],"css.tools.execBlock:exec:timeSliceRepeats":["true"],"css.tools.execBlock:metaData:enable":["true"],"css.tools.execBlock:metaData:repeats":["false"],"css.tools.execBlock:metaData:sets":["{\"table\":{\"atst.ics.vbiBlue.focus:engPos\":[\"-6246.0\"],\"atst.ics.vbiBlue.focus:namedPos\":[\"G Band\"],\"atst.ics.vbiBlue.focus:userPos\":[\"-1.5615\"]}}"]}}

# eb_Spiral.gH1E0t
{"table":{"css.tools.execBlock:ID":["eb_Spiral.gH1E0t"],"css.tools.execBlock:description":["FIELD Execution Block"],"css.tools.execBlock:exec:count":["1"],"css.tools.execBlock:exec:nextID":["eb_Focus.gH1E0t"],"css.tools.execBlock:exec:timeSlice":["0.0"],"css.tools.execBlock:exec:timeSliceRepeats":["true"],"css.tools.execBlock:metaData:enable":["true"],"css.tools.execBlock:metaData:repeats":["false"],"css.tools.execBlock:metaData:sets":["{\"table\":{\"atst.ics.vbiBlue.focus:engPos\":[\"-144218.1854248047\"],\"atst.ics.vbiBlue.focus:namedPos\":[\"Ca II K\"],\"atst.ics.vbiBlue.focus:userPos\":[\"-36.05454635620117\"]}}"]}}

# eb_group_1-0.155.7960
{"table":{"css.tools.execBlock:ID":["eb_group_1-0.155.7960"],"css.tools.execBlock:description":["GROUP Execution Block"],"css.tools.execBlock:exec:count":["1","4","1","1"],"css.tools.execBlock:exec:nextID":["eb_Blue_Continuum.qM8fjh","eb_group_2-0.155.7961","eb_group_2-0.155.7961","eb_H_Beta.nO0lBf"],"css.tools.execBlock:exec:timeSlice":["8.28","58.87","58.87","0.0"],"css.tools.execBlock:exec:timeSliceRepeats":["true"],"css.tools.execBlock:metaData:enable":["true"],"css.tools.execBlock:metaData:repeats":["true"],"css.tools.execBlock:metaData:sets":["{\"table\":{\"__dsp.modifable\":[\"*.*\"],\"atst.ics.vbiBlue.camera:binning\":[\"1\"],\"atst.ics.vbiBlue.camera:exposureFollow\":[\"false\"],\"atst.ics.vbiBlue.camera:exposureMode\":[\"Manual\"],\"atst.ics.vbiBlue.camera:exposureRate\":[\"10.0\"],\"atst.ics.vbiBlue.camera:exposureTime\":[\"32.5\"],\"atst.ics.vbiBlue.camera:exposures\":[\"80\"],\"atst.ics.vbiBlue.camera:roi\":[\"0\",\"0\",\"4128\",\"4104\"],\"atst.ics.vbiBlue.comment\":[\"\\u003cno comment\\u003e\"],\"atst.ics.vbiBlue.data:calibrate\":[\"false\"],\"atst.ics.vbiBlue.data:select\":[\"false\"],\"atst.ics.vbiBlue.data:selectAlgorithm\":[\"Contrast\"],\"atst.ics.vbiBlue.data:selectExposures\":[\"0\"],\"atst.ics.vbiBlue.data:selectModulus\":[\"0\",\"0\"],\"atst.ics.vbiBlue.data:selectRoi\":[\"0\",\"0\",\"0\",\"0\"],\"atst.ics.vbiBlue.data:speckle\":[\"false\"],\"atst.ics.vbiBlue.dspId\":[\"dspqM8fjh\"],\"atst.ics.vbiBlue.execBlockId\":[\"eb_Blue_Continuum.qM8fjh\"],\"atst.ics.vbiBlue.field:numFields\":[\"1\"],\"atst.ics.vbiBlue.field:sampleMode\":[\"Center\"],\"atst.ics.vbiBlue.filter:engPos\":[\"-29377.000607288886\"],\"atst.ics.vbiBlue.filter:namedPos\":[\"Blue_Continuum\"],\"atst.ics.vbiBlue.filter:userPos\":[\"-40.343171\"],\"atst.ics.vbiBlue.mechanism:fieldSampleMode\":[\"Center\"],\"atst.ics.vbiBlue.mechanism:wavelength\":[\"Blue_Continuum\"]}}","{\"table\":{\"atst.ics.vbiBlue.dummy\":[\"dummy\"]}}","{\"table\":{\"atst.ics.vbiBlue.dummy\":[\"dummy\"]}}","{\"table\":{\"__dsp.modifable\":[\"*.*\"],\"atst.ics.vbiBlue.camera:binning\":[\"1\"],\"atst.ics.vbiBlue.camera:exposureFollow\":[\"false\"],\"atst.ics.vbiBlue.camera:exposureMode\":[\"Manual\"],\"atst.ics.vbiBlue.camera:exposureRate\":[\"30.0\"],\"atst.ics.vbiBlue.camera:exposureTime\":[\"10.0\"],\"atst.ics.vbiBlue.camera:exposures\":[\"80\"],\"atst.ics.vbiBlue.camera:roi\":[\"0\",\"0\",\"4128\",\"4104\"],\"atst.ics.vbiBlue.comment\":[\"\\u003cno comment\\u003e\"],\"atst.ics.vbiBlue.data:calibrate\":[\"false\"],\"atst.ics.vbiBlue.data:select\":[\"false\"],\"atst.ics.vbiBlue.data:selectAlgorithm\":[\"Contrast\"],\"atst.ics.vbiBlue.data:selectExposures\":[\"0\"],\"atst.ics.vbiBlue.data:selectModulus\":[\"0\",\"0\"],\"atst.ics.vbiBlue.data:selectRoi\":[\"0\",\"0\",\"0\",\"0\"],\"atst.ics.vbiBlue.data:speckle\":[\"false\"],\"atst.ics.vbiBlue.dspId\":[\"dspnO0lBf\"],\"atst.ics.vbiBlue.execBlockId\":[\"eb_H_Beta.nO0lBf\"],\"atst.ics.vbiBlue.field:numFields\":[\"1\"],\"atst.ics.vbiBlue.field:sampleMode\":[\"Center\"],\"atst.ics.vbiBlue.filter:engPos\":[\"23051.9996416\"],\"atst.ics.vbiBlue.filter:namedPos\":[\"H_Beta\"],\"atst.ics.vbiBlue.filter:userPos\":[\"31.657104\"],\"atst.ics.vbiBlue.mechanism:fieldSampleMode\":[\"Center\"],\"atst.ics.vbiBlue.mechanism:wavelength\":[\"H_Beta\"]}}"]}}

# eb_group_2-0.155.7961
{"table":{"css.tools.execBlock:ID":["eb_group_2-0.155.7961"],"css.tools.execBlock:description":["GROUP Execution Block"],"css.tools.execBlock:exec:count":["1","1","1"],"css.tools.execBlock:exec:nextID":["eb_Blue_Continuum.tuLnyu","eb_Ca_II_K.gH1E0t","eb_G_Band.MmK9ge"],"css.tools.execBlock:exec:timeSlice":["3.58","27.57","0.0"],"css.tools.execBlock:exec:timeSliceRepeats":["true"],"css.tools.execBlock:metaData:enable":["true"],"css.tools.execBlock:metaData:repeats":["true"],"css.tools.execBlock:metaData:sets":["{\"table\":{\"__dsp.modifable\":[\"*.*\"],\"atst.ics.vbiBlue.camera:binning\":[\"1\"],\"atst.ics.vbiBlue.camera:exposureFollow\":[\"false\"],\"atst.ics.vbiBlue.camera:exposureMode\":[\"Manual\"],\"atst.ics.vbiBlue.camera:exposureRate\":[\"25.0\"],\"atst.ics.vbiBlue.camera:exposureTime\":[\"32.5\"],\"atst.ics.vbiBlue.camera:exposures\":[\"80\"],\"atst.ics.vbiBlue.camera:roi\":[\"0\",\"0\",\"4128\",\"4104\"],\"atst.ics.vbiBlue.comment\":[\"\\u003cno comment\\u003e\"],\"atst.ics.vbiBlue.data:calibrate\":[\"false\"],\"atst.ics.vbiBlue.data:select\":[\"false\"],\"atst.ics.vbiBlue.data:selectAlgorithm\":[\"Contrast\"],\"atst.ics.vbiBlue.data:selectExposures\":[\"0\"],\"atst.ics.vbiBlue.data:selectModulus\":[\"0\",\"0\"],\"atst.ics.vbiBlue.data:selectRoi\":[\"0\",\"0\",\"0\",\"0\"],\"atst.ics.vbiBlue.data:speckle\":[\"false\"],\"atst.ics.vbiBlue.dspId\":[\"dsptuLnyu\"],\"atst.ics.vbiBlue.execBlockId\":[\"eb_Blue_Continuum.tuLnyu\"],\"atst.ics.vbiBlue.field:numFields\":[\"1\"],\"atst.ics.vbiBlue.field:sampleMode\":[\"Center\"],\"atst.ics.vbiBlue.filter:engPos\":[\"-29377.000607288886\"],\"atst.ics.vbiBlue.filter:namedPos\":[\"Blue_Continuum\"],\"atst.ics.vbiBlue.filter:userPos\":[\"-40.343171\"],\"atst.ics.vbiBlue.mechanism:fieldSampleMode\":[\"Center\"],\"atst.ics.vbiBlue.mechanism:wavelength\":[\"Blue_Continuum\"]}}","{\"table\":{\"__dsp.modifable\":[\"*.*\"],\"atst.ics.vbiBlue.camera:binning\":[\"1\"],\"atst.ics.vbiBlue.camera:exposureFollow\":[\"false\"],\"atst.ics.vbiBlue.camera:exposureMode\":[\"Manual\"],\"atst.ics.vbiBlue.camera:exposureRate\":[\"30.0\"],\"atst.ics.vbiBlue.camera:exposureTime\":[\"20.0\"],\"atst.ics.vbiBlue.camera:exposures\":[\"80\"],\"atst.ics.vbiBlue.camera:roi\":[\"0\",\"0\",\"4128\",\"4104\"],\"atst.ics.vbiBlue.comment\":[\"\\u003cno comment\\u003e\"],\"atst.ics.vbiBlue.data:calibrate\":[\"false\"],\"atst.ics.vbiBlue.data:select\":[\"false\"],\"atst.ics.vbiBlue.data:selectAlgorithm\":[\"Contrast\"],\"atst.ics.vbiBlue.data:selectExposures\":[\"0\"],\"atst.ics.vbiBlue.data:selectModulus\":[\"0\",\"0\"],\"atst.ics.vbiBlue.data:selectRoi\":[\"0\",\"0\",\"0\",\"0\"],\"atst.ics.vbiBlue.data:speckle\":[\"false\"],\"atst.ics.vbiBlue.dspId\":[\"dspgH1E0t\"],\"atst.ics.vbiBlue.execBlockId\":[\"eb_Ca_II_K.gH1E0t\"],\"atst.ics.vbiBlue.field:numFields\":[\"9\"],\"atst.ics.vbiBlue.field:sampleMode\":[\"Spiral\"],\"atst.ics.vbiBlue.filter:engPos\":[\"127908.99962311111\"],\"atst.ics.vbiBlue.filter:namedPos\":[\"Ca_II_K\"],\"atst.ics.vbiBlue.filter:userPos\":[\"175.65628\"],\"atst.ics.vbiBlue.mechanism:fieldSampleMode\":[\"Spiral\"],\"atst.ics.vbiBlue.mechanism:wavelength\":[\"Ca_II_K\"]}}","{\"table\":{\"__dsp.modifable\":[\"*.*\"],\"atst.ics.vbiBlue.camera:binning\":[\"1\"],\"atst.ics.vbiBlue.camera:exposureFollow\":[\"false\"],\"atst.ics.vbiBlue.camera:exposureMode\":[\"Manual\"],\"atst.ics.vbiBlue.camera:exposureRate\":[\"30.0\"],\"atst.ics.vbiBlue.camera:exposureTime\":[\"20.0\"],\"atst.ics.vbiBlue.camera:exposures\":[\"80\"],\"atst.ics.vbiBlue.camera:roi\":[\"0\",\"0\",\"4128\",\"4104\"],\"atst.ics.vbiBlue.comment\":[\"\\u003cno comment\\u003e\"],\"atst.ics.vbiBlue.data:calibrate\":[\"false\"],\"atst.ics.vbiBlue.data:select\":[\"false\"],\"atst.ics.vbiBlue.data:selectAlgorithm\":[\"Contrast\"],\"atst.ics.vbiBlue.data:selectExposures\":[\"0\"],\"atst.ics.vbiBlue.data:selectModulus\":[\"0\",\"0\"],\"atst.ics.vbiBlue.data:selectRoi\":[\"0\",\"0\",\"0\",\"0\"],\"atst.ics.vbiBlue.data:speckle\":[\"false\"],\"atst.ics.vbiBlue.dspId\":[\"dspMmK9ge\"],\"atst.ics.vbiBlue.execBlockId\":[\"eb_G_Band.MmK9ge\"],\"atst.ics.vbiBlue.field:numFields\":[\"9\"],\"atst.ics.vbiBlue.field:sampleMode\":[\"Horizontal\"],\"atst.ics.vbiBlue.filter:engPos\":[\"75479.99937422221\"],\"atst.ics.vbiBlue.filter:namedPos\":[\"G_Band\"],\"atst.ics.vbiBlue.filter:userPos\":[\"103.656005\"],\"atst.ics.vbiBlue.mechanism:fieldSampleMode\":[\"Horizontal\"],\"atst.ics.vbiBlue.mechanism:wavelength\":[\"G_Band\"]}}"]}}

# eb_root_0-0.155.7959
{"table":{"css.tools.execBlock:ID":["eb_root_0-0.155.7959"],"css.tools.execBlock:description":["ROOT Execution Block"],"css.tools.execBlock:exec:count":["1"],"css.tools.execBlock:exec:nextID":["eb_group_1-0.155.7960"],"css.tools.execBlock:exec:timeSlice":["305.6766666666667"],"css.tools.execBlock:exec:timeSliceRepeats":["true"],"css.tools.execBlock:metaData:enable":["true"],"css.tools.execBlock:metaData:repeats":["true"],"css.tools.execBlock:metaData:sets":["{\"table\":{\"atst.ics.vbiBlue.cadence\":[\"loose\"],\"atst.ics.vbiBlue.cadenceOffset\":[\"0.0\"],\"atst.ics.vbiBlue.cycleDuration\":[\"305.6766666666667\"],\"atst.ics.vbiBlue.lastAlignDate\":[\"2017-01-01 00:00:00.000\"],\"atst.ics.vbiBlue.pixelScaleX\":[\"0.011\"],\"atst.ics.vbiBlue.pixelScaleY\":[\"0.011\"],\"atst.ics.vbiBlue.sif:cfgType\":[\"engrObs\"],\"atst.ics.vbiBlue.sif:dataSetParamSeq\":[\"dspqM8fjh 5 ( dsptuLnyu dspgH1E0t dspMmK9ge ) dspnO0lBf\"],\"atst.ics.vbiBlue.sif:dataSetParamSeqExpanded\":[\"dspqM8fjh\",\"dsptuLnyu\",\"dspgH1E0t\",\"dspMmK9ge\",\"dsptuLnyu\",\"dspgH1E0t\",\"dspMmK9ge\",\"dsptuLnyu\",\"dspgH1E0t\",\"dspMmK9ge\",\"dsptuLnyu\",\"dspgH1E0t\",\"dspMmK9ge\",\"dsptuLnyu\",\"dspgH1E0t\",\"dspMmK9ge\",\"dspnO0lBf\"],\"atst.ics.vbiBlue.sif:eId\":[\"engr-exp\"],\"atst.ics.vbiBlue.sif:engrData\":[\"true\"],\"atst.ics.vbiBlue.sif:ipId\":[\"atst.ics.vbiBlue.142.4480\"],\"atst.ics.vbiBlue.sif:ipTask\":[\"observe\"],\"atst.ics.vbiBlue.sif:manual\":[\"true\"],\"atst.ics.vbiBlue.sif:numCycles\":[\"1\"],\"atst.ics.vbiBlue.sif:obsTask\":[\"observe\"],\"atst.ics.vbiBlue.sif:opId\":[\"engr-op\"],\"atst.ics.vbiBlue.sif:opTask\":[\"observe\"],\"atst.ics.vbiBlue.sif:runtime\":[\"-1\"],\"atst.ics.vbiBlue.sif:saveData\":[\"false\"],\"atst.ics.vbiBlue.sif:scriptId\":[\"observe_standard\"],\"atst.ics.vbiBlue.sif:tcsConfigured\":[\"true\"],\"atst.ics.vbiBlue.sif:test\":[\"true\"]}}"]}}
